# Command:
#   > ./chroot_setup.sh chroot_OPS_PYTHON.lst /QOpenSys/root_path

#
# copy dirs list
# (
#  mkdir -p $CHROOT_DIR/path
#  cp -R  /path/* $CHROOT_DIR/path/.
# )
#
:cp_dir
/QOpenSys/QIBM/ProdData/OPS/Python3.4
/QOpenSys/QIBM/ProdData/OPS/Python-pkgs

#
# relative links list
# (
#   ls -l /QOpenSys/usr/bin/c_rehash
#   /QOpenSys/usr/bin/c_rehash -> ../../QIBM/ProdData/SC1/OpenSSL/openssl-0.9.8j/bin/c_rehash
#   cd $CHROOT_DIR/QOpenSys/usr/bin/
#   ln ../../QIBM/ProdData/SC1/OpenSSL/openssl-0.9.8j/bin/c_rehash c_rehash
# )
#
:ln_rel
/QOpenSys/usr/bin/2to3 ../../QIBM/ProdData/OPS/Python3.4/bin/2to3
/QOpenSys/usr/bin/2to3-3.4 ../../QIBM/ProdData/OPS/Python3.4/bin/2to3-3.4
/QOpenSys/usr/bin/easy_install-3.4 ../../QIBM/ProdData/OPS/Python3.4/bin/easy_install-3.4
/QOpenSys/usr/bin/easy_install3 ../../QIBM/ProdData/OPS/Python3.4/bin/easy_install3
/QOpenSys/usr/bin/pip3 ../../QIBM/ProdData/OPS/Python3.4/bin/pip3
/QOpenSys/usr/bin/pip3.4 ../../QIBM/ProdData/OPS/Python3.4/bin/pip3.4
/QOpenSys/usr/bin/pydoc3 ../../QIBM/ProdData/OPS/Python3.4/bin/pydoc3 
/QOpenSys/usr/bin/pydoc3.4 ../../QIBM/ProdData/OPS/Python3.4/bin/pydoc3.4
/QOpenSys/usr/bin/python3 ../../QIBM/ProdData/OPS/Python3.4/bin/python3
/QOpenSys/usr/bin/python3.4 ../../QIBM/ProdData/OPS/Python3.4/bin/python3.4 
/QOpenSys/usr/bin/pyvenv ../../QIBM/ProdData/OPS/Python3.4/bin/pyvenv
/QOpenSys/usr/bin/pyvenv-3.4 ../../QIBM/ProdData/OPS/Python3.4/bin/pyvenv-3.4
/QOpenSys/usr/lib/libpython3.4m.so ../../QIBM/ProdData/OPS/Python3.4/lib/libpython3.4m.so


